dump.vcd
$timescale 1ns $end
$scope module logic $end
$var wire 1 clk clk $end
$var wire 32 ALU_first_x ALU_first_x $end
$var wire 3 ALU_op_dx ALU_op_dx $end
$var wire 32 ALU_result_mw ALU_result_mw $end
$var wire 32 ALU_result_xm ALU_result_xm $end
$var wire 32 ALU_second_x ALU_second_x $end
$var wire 2 ALU_src_dx ALU_src_dx $end
$var wire 2 ForwardA ForwardA $end
$var wire 2 ForwardB ForwardB $end
$var wire 1 branch_dx branch_dx $end
$var wire 32 branch_offset_dx branch_offset_dx $end
$var wire 32 branch_pc_xm branch_pc_xm $end
$var wire 10 control_out control_out $end
$var wire 32 d_mem_read_mw d_mem_read_mw $end
$var wire 32 imm_sign_dx imm_sign_dx $end
$var wire 32 imm_zero_dx imm_zero_dx $end
$var wire 32 instr_f instr_f $end
$var wire 32 instr_fd instr_fd $end
$var wire 1 mem_to_reg_dx mem_to_reg_dx $end
$var wire 1 mem_to_reg_mw mem_to_reg_mw $end
$var wire 1 mem_to_reg_xm mem_to_reg_xm $end
$var wire 1 mem_write_dx mem_write_dx $end
$var wire 1 mem_write_xm mem_write_xm $end
$var wire 32 pc pc $end
$var wire 32 pc_next pc_next $end
$var wire 32 pc_plus_4_dx pc_plus_4_dx $end
$var wire 32 pc_plus_4_fd pc_plus_4_fd $end
$var wire 32 rd_dx rd_dx $end
$var wire 32 rd_mw rd_mw $end
$var wire 32 rd_x rd_x $end
$var wire 32 rd_xm rd_xm $end
$var wire 1 reg_dest_dx reg_dest_dx $end
$var wire 1 reg_write_dx reg_write_dx $end
$var wire 1 reg_write_mw reg_write_mw $end
$var wire 1 reg_write_xm reg_write_xm $end
$var wire 32 rf_data_1_dx rf_data_1_dx $end
$var wire 32 rf_data_2_dx rf_data_2_dx $end
$var wire 32 rf_data_2_xm rf_data_2_xm $end
$var wire 32 rf_write_data_w rf_write_data_w $end
$var wire 32 rs_dx rs_dx $end
$var wire 32 rt_dx rt_dx $end
$var wire 1 stall stall $end
$var wire 1 to_branch_x to_branch_x $end
$var wire 1 to_branch_xm to_branch_xm $end
$upscope $end
$enddefinitions $end
$dumpvars
b0 ALU_first_x
b0 ALU_op_dx
b0 ALU_result_mw
b0 ALU_result_xm
b0 ALU_second_x
b0 ALU_src_dx
b0 ForwardA
b0 ForwardB
b0 branch_dx
b0 branch_offset_dx
b0 branch_pc_xm
b0 control_out
b0 d_mem_read_mw
b0 imm_sign_dx
b0 imm_zero_dx
b100000000010001111111111111111 instr_f
b0 instr_fd
b0 mem_to_reg_dx
b0 mem_to_reg_mw
b0 mem_to_reg_xm
b0 mem_write_dx
b0 mem_write_xm
b11111111111111111111111111111100 pc
b0 pc_next
b0 pc_plus_4_dx
b0 pc_plus_4_fd
b0 rd_dx
b0 rd_mw
b0 rd_x
b0 rd_xm
b0 reg_dest_dx
b0 reg_write_dx
b0 reg_write_mw
b0 reg_write_xm
b0 rf_data_1_dx
b0 rf_data_2_dx
b0 rf_data_2_xm
b0 rf_write_data_w
b0 rs_dx
b0 rt_dx
b0 stall
b0 to_branch_x
b0 to_branch_xm
$end
#0
b0 ALU_first_x
b0 ALU_op_dx
b0 ALU_result_mw
b0 ALU_result_xm
b0 ALU_second_x
b0 ALU_src_dx
b0 ForwardA
b0 ForwardB
b0 branch_dx
b0 branch_offset_dx
b0 branch_pc_xm
b0 control_out
b0 d_mem_read_mw
b0 imm_sign_dx
b0 imm_zero_dx
b100000000010001111111111111111 instr_f
b0 instr_fd
b0 mem_to_reg_dx
b0 mem_to_reg_mw
b0 mem_to_reg_xm
b0 mem_write_dx
b0 mem_write_xm
b11111111111111111111111111111100 pc
b0 pc_next
b0 pc_plus_4_dx
b0 pc_plus_4_fd
b0 rd_dx
b0 rd_mw
b0 rd_x
b0 rd_xm
b0 reg_dest_dx
b0 reg_write_dx
b0 reg_write_mw
b0 reg_write_xm
b0 rf_data_1_dx
b0 rf_data_2_dx
b0 rf_data_2_xm
b0 rf_write_data_w
b0 rs_dx
b0 rt_dx
b0 stall
b0 to_branch_x
b0 to_branch_xm
b1 clk

#5
b0 clk

#10
b0 ALU_first_x
b0 ALU_op_dx
b0 ALU_result_mw
b0 ALU_result_xm
b0 ALU_second_x
b0 ALU_src_dx
b0 ForwardA
b0 ForwardB
b0 branch_dx
b0 branch_offset_dx
b0 branch_pc_xm
b10100000 control_out
b0 d_mem_read_mw
b0 imm_sign_dx
b0 imm_zero_dx
b100000000010011111111111111111 instr_f
b100000000010001111111111111111 instr_fd
b0 mem_to_reg_dx
b0 mem_to_reg_mw
b0 mem_to_reg_xm
b0 mem_write_dx
b0 mem_write_xm
b0 pc
b100 pc_next
b0 pc_plus_4_dx
b100 pc_plus_4_fd
b0 rd_dx
b0 rd_mw
b0 rd_x
b0 rd_xm
b0 reg_dest_dx
b0 reg_write_dx
b0 reg_write_mw
b0 reg_write_xm
b0 rf_data_1_dx
b0 rf_data_2_dx
b0 rf_data_2_xm
b0 rf_write_data_w
b0 rs_dx
b0 rt_dx
b0 stall
b0 to_branch_x
b0 to_branch_xm
b1 clk

#15
b0 clk

#20
b0 ALU_first_x
b0 ALU_op_dx
b0 ALU_result_mw
b0 ALU_result_xm
b11111111111111111111111111111111 ALU_second_x
b1 ALU_src_dx
b0 ForwardA
b0 ForwardB
b0 branch_dx
b11111111111111111111111111111100 branch_offset_dx
b0 branch_pc_xm
b10100000 control_out
b0 d_mem_read_mw
b11111111111111111111111111111111 imm_sign_dx
b1111111111111111 imm_zero_dx
b1000010010101000000100000 instr_f
b100000000010011111111111111111 instr_fd
b0 mem_to_reg_dx
b0 mem_to_reg_mw
b0 mem_to_reg_xm
b0 mem_write_dx
b0 mem_write_xm
b100 pc
b1000 pc_next
b100 pc_plus_4_dx
b1000 pc_plus_4_fd
b11111 rd_dx
b0 rd_mw
b1000 rd_x
b0 rd_xm
b0 reg_dest_dx
b1 reg_write_dx
b0 reg_write_mw
b0 reg_write_xm
b0 rf_data_1_dx
b0 rf_data_2_dx
b0 rf_data_2_xm
b0 rf_write_data_w
b0 rs_dx
b1000 rt_dx
b0 stall
b0 to_branch_x
b0 to_branch_xm
b1 clk

#25
b0 clk

#30
b0 ALU_first_x
b0 ALU_op_dx
b0 ALU_result_mw
b11111111111111111111111111111111 ALU_result_xm
b11111111111111111111111111111111 ALU_second_x
b1 ALU_src_dx
b0 ForwardA
b0 ForwardB
b0 branch_dx
b11111111111111111111111111111100 branch_offset_dx
b0 branch_pc_xm
b1010000000 control_out
b0 d_mem_read_mw
b11111111111111111111111111111111 imm_sign_dx
b1111111111111111 imm_zero_dx
b111100000010111111111111111111 instr_f
b1000010010101000000100000 instr_fd
b0 mem_to_reg_dx
b0 mem_to_reg_mw
b0 mem_to_reg_xm
b0 mem_write_dx
b0 mem_write_xm
b1000 pc
b1100 pc_next
b1000 pc_plus_4_dx
b1100 pc_plus_4_fd
b11111 rd_dx
b0 rd_mw
b1001 rd_x
b1000 rd_xm
b0 reg_dest_dx
b1 reg_write_dx
b0 reg_write_mw
b1 reg_write_xm
b0 rf_data_1_dx
b0 rf_data_2_dx
b0 rf_data_2_xm
b0 rf_write_data_w
b0 rs_dx
b1001 rt_dx
b0 stall
b0 to_branch_x
b0 to_branch_xm
b1 clk

#35
b0 clk

#40
b11111111111111111111111111111111 ALU_first_x
b0 ALU_op_dx
b11111111111111111111111111111111 ALU_result_mw
b11111111111111111111111111111111 ALU_result_xm
b11111111111111111111111111111111 ALU_second_x
b0 ALU_src_dx
b1 ForwardA
b10 ForwardB
b0 branch_dx
b10100000010000000 branch_offset_dx
b100 branch_pc_xm
b10100101 control_out
b0 d_mem_read_mw
b101000000100000 imm_sign_dx
b101000000100000 imm_zero_dx
b110101011011000000000000000001 instr_f
b111100000010111111111111111111 instr_fd
b0 mem_to_reg_dx
b0 mem_to_reg_mw
b0 mem_to_reg_xm
b0 mem_write_dx
b0 mem_write_xm
b1100 pc
b10000 pc_next
b1100 pc_plus_4_dx
b10000 pc_plus_4_fd
b1010 rd_dx
b1000 rd_mw
b1010 rd_x
b1001 rd_xm
b1 reg_dest_dx
b1 reg_write_dx
b1 reg_write_mw
b1 reg_write_xm
b0 rf_data_1_dx
b0 rf_data_2_dx
b0 rf_data_2_xm
b11111111111111111111111111111111 rf_write_data_w
b1000 rs_dx
b1001 rt_dx
b0 stall
b0 to_branch_x
b0 to_branch_xm
b1 clk

#45
b0 clk

#50
b0 ALU_first_x
b101 ALU_op_dx
b11111111111111111111111111111111 ALU_result_mw
b11111111111111111111111111111110 ALU_result_xm
b11111111111111111111111111111111 ALU_second_x
b1 ALU_src_dx
b0 ForwardA
b0 ForwardB
b0 branch_dx
b11111111111111111111111111111100 branch_offset_dx
b10100000010001100 branch_pc_xm
b11000010 control_out
b0 d_mem_read_mw
b11111111111111111111111111111111 imm_sign_dx
b1111111111111111 imm_zero_dx
b100000000011010000000011111110 instr_f
b110101011011000000000000000001 instr_fd
b0 mem_to_reg_dx
b0 mem_to_reg_mw
b0 mem_to_reg_xm
b0 mem_write_dx
b0 mem_write_xm
b10000 pc
b10100 pc_next
b10000 pc_plus_4_dx
b10100 pc_plus_4_fd
b11111 rd_dx
b1001 rd_mw
b1011 rd_x
b1010 rd_xm
b0 reg_dest_dx
b1 reg_write_dx
b1 reg_write_mw
b1 reg_write_xm
b0 rf_data_1_dx
b0 rf_data_2_dx
b11111111111111111111111111111111 rf_data_2_xm
b11111111111111111111111111111111 rf_write_data_w
b0 rs_dx
b1011 rt_dx
b0 stall
b0 to_branch_x
b0 to_branch_xm
b1 clk

#55
b0 clk

#60
b11111111111111110000000000000000 ALU_first_x
b10 ALU_op_dx
b11111111111111111111111111111110 ALU_result_mw
b11111111111111110000000000000000 ALU_result_xm
b1 ALU_second_x
b10 ALU_src_dx
b10 ForwardA
b0 ForwardB
b0 branch_dx
b100 branch_offset_dx
b1100 branch_pc_xm
b10100000 control_out
b0 d_mem_read_mw
b1 imm_sign_dx
b1 imm_zero_dx
b100000000011100001010100000111 instr_f
b100000000011010000000011111110 instr_fd
b0 mem_to_reg_dx
b0 mem_to_reg_mw
b0 mem_to_reg_xm
b0 mem_write_dx
b0 mem_write_xm
b10100 pc
b11000 pc_next
b10100 pc_plus_4_dx
b11000 pc_plus_4_fd
b0 rd_dx
b1010 rd_mw
b1100 rd_x
b1011 rd_xm
b0 reg_dest_dx
b1 reg_write_dx
b1 reg_write_mw
b1 reg_write_xm
b0 rf_data_1_dx
b0 rf_data_2_dx
b0 rf_data_2_xm
b11111111111111111111111111111110 rf_write_data_w
b1011 rs_dx
b1100 rt_dx
b0 stall
b0 to_branch_x
b0 to_branch_xm
b1 clk

#65
b0 clk

#70
b0 ALU_first_x
b0 ALU_op_dx
b11111111111111110000000000000000 ALU_result_mw
b11111111111111110000000000000001 ALU_result_xm
b11111110 ALU_second_x
b1 ALU_src_dx
b0 ForwardA
b0 ForwardB
b0 branch_dx
b1111111000 branch_offset_dx
b11000 branch_pc_xm
b10100000 control_out
b0 d_mem_read_mw
b11111110 imm_sign_dx
b11111110 imm_zero_dx
b1101011100111100000100100 instr_f
b100000000011100001010100000111 instr_fd
b0 mem_to_reg_dx
b0 mem_to_reg_mw
b0 mem_to_reg_xm
b0 mem_write_dx
b0 mem_write_xm
b11000 pc
b11100 pc_next
b11000 pc_plus_4_dx
b11100 pc_plus_4_fd
b0 rd_dx
b1011 rd_mw
b1101 rd_x
b1100 rd_xm
b0 reg_dest_dx
b1 reg_write_dx
b1 reg_write_mw
b1 reg_write_xm
b0 rf_data_1_dx
b0 rf_data_2_dx
b0 rf_data_2_xm
b11111111111111110000000000000000 rf_write_data_w
b0 rs_dx
b1101 rt_dx
b0 stall
b0 to_branch_x
b0 to_branch_xm
b1 clk

#75
b0 clk

#80
b0 ALU_first_x
b0 ALU_op_dx
b11111111111111110000000000000001 ALU_result_mw
b11111110 ALU_result_xm
b1010100000111 ALU_second_x
b1 ALU_src_dx
b0 ForwardA
b0 ForwardB
b0 branch_dx
b101010000011100 branch_offset_dx
b10000010000 branch_pc_xm
b1010000001 control_out
b0 d_mem_read_mw
b1010100000111 imm_sign_dx
b1010100000111 imm_zero_dx
b1111011101000000000101010 instr_f
b1101011100111100000100100 instr_fd
b0 mem_to_reg_dx
b0 mem_to_reg_mw
b0 mem_to_reg_xm
b0 mem_write_dx
b0 mem_write_xm
b11100 pc
b100000 pc_next
b11100 pc_plus_4_dx
b100000 pc_plus_4_fd
b10 rd_dx
b1100 rd_mw
b1110 rd_x
b1101 rd_xm
b0 reg_dest_dx
b1 reg_write_dx
b1 reg_write_mw
b1 reg_write_xm
b0 rf_data_1_dx
b0 rf_data_2_dx
b0 rf_data_2_xm
b11111111111111110000000000000001 rf_write_data_w
b0 rs_dx
b1110 rt_dx
b0 stall
b0 to_branch_x
b0 to_branch_xm
b1 clk

#85
b0 clk

#90
b11111110 ALU_first_x
b1 ALU_op_dx
b11111110 ALU_result_mw
b1010100000111 ALU_result_xm
b1010100000111 ALU_second_x
b0 ALU_src_dx
b1 ForwardA
b10 ForwardB
b0 branch_dx
b11110000010010000 branch_offset_dx
b101010000111000 branch_pc_xm
b1010000011 control_out
b0 d_mem_read_mw
b111100000100100 imm_sign_dx
b111100000100100 imm_zero_dx
b100000000100010000000000000001 instr_f
b1111011101000000000101010 instr_fd
b0 mem_to_reg_dx
b0 mem_to_reg_mw
b0 mem_to_reg_xm
b0 mem_write_dx
b0 mem_write_xm
b100000 pc
b100100 pc_next
b100000 pc_plus_4_dx
b100100 pc_plus_4_fd
b1111 rd_dx
b1101 rd_mw
b1111 rd_x
b1110 rd_xm
b1 reg_dest_dx
b1 reg_write_dx
b1 reg_write_mw
b1 reg_write_xm
b0 rf_data_1_dx
b0 rf_data_2_dx
b0 rf_data_2_xm
b11111110 rf_write_data_w
b1101 rs_dx
b1110 rt_dx
b0 stall
b0 to_branch_x
b0 to_branch_xm
b1 clk

#95
b0 clk

#100
b110 ALU_first_x
b11 ALU_op_dx
b1010100000111 ALU_result_mw
b110 ALU_result_xm
b1010100000111 ALU_second_x
b0 ALU_src_dx
b10 ForwardA
b1 ForwardB
b0 branch_dx
b11111111111111100000000010101000 branch_offset_dx
b11110000010110000 branch_pc_xm
b10100000 control_out
b0 d_mem_read_mw
b11111111111111111000000000101010 imm_sign_dx
b1000000000101010 imm_zero_dx
b100000000100100000000000000010 instr_f
b100000000100010000000000000001 instr_fd
b0 mem_to_reg_dx
b0 mem_to_reg_mw
b0 mem_to_reg_xm
b0 mem_write_dx
b0 mem_write_xm
b100100 pc
b101000 pc_next
b100100 pc_plus_4_dx
b101000 pc_plus_4_fd
b10000 rd_dx
b1110 rd_mw
b10000 rd_x
b1111 rd_xm
b1 reg_dest_dx
b1 reg_write_dx
b1 reg_write_mw
b1 reg_write_xm
b0 rf_data_1_dx
b0 rf_data_2_dx
b1010100000111 rf_data_2_xm
b1010100000111 rf_write_data_w
b1111 rs_dx
b1110 rt_dx
b0 stall
b0 to_branch_x
b0 to_branch_xm
b1 clk

#105
b0 clk

#110
b0 ALU_first_x
b0 ALU_op_dx
b110 ALU_result_mw
b1 ALU_result_xm
b1 ALU_second_x
b1 ALU_src_dx
b0 ForwardA
b0 ForwardB
b0 branch_dx
b100 branch_offset_dx
b11111111111111100000000011001100 branch_pc_xm
b10100000 control_out
b0 d_mem_read_mw
b1 imm_sign_dx
b1 imm_zero_dx
b10010100011001100000101010 instr_f
b100000000100100000000000000010 instr_fd
b0 mem_to_reg_dx
b0 mem_to_reg_mw
b0 mem_to_reg_xm
b0 mem_write_dx
b0 mem_write_xm
b101000 pc
b101100 pc_next
b101000 pc_plus_4_dx
b101100 pc_plus_4_fd
b0 rd_dx
b1111 rd_mw
b10001 rd_x
b10000 rd_xm
b0 reg_dest_dx
b1 reg_write_dx
b1 reg_write_mw
b1 reg_write_xm
b0 rf_data_1_dx
b0 rf_data_2_dx
b1010100000111 rf_data_2_xm
b110 rf_write_data_w
b0 rs_dx
b10001 rt_dx
b0 stall
b0 to_branch_x
b0 to_branch_xm
b1 clk

#115
b0 clk

#120
b0 ALU_first_x
b0 ALU_op_dx
b1 ALU_result_mw
b1 ALU_result_xm
b10 ALU_second_x
b1 ALU_src_dx
b0 ForwardA
b0 ForwardB
b0 branch_dx
b1000 branch_offset_dx
b101100 branch_pc_xm
b1010000011 control_out
b0 d_mem_read_mw
b10 imm_sign_dx
b10 imm_zero_dx
b100000000101000001010100000111 instr_f
b10010100011001100000101010 instr_fd
b0 mem_to_reg_dx
b0 mem_to_reg_mw
b0 mem_to_reg_xm
b0 mem_write_dx
b0 mem_write_xm
b101100 pc
b110000 pc_next
b101100 pc_plus_4_dx
b110000 pc_plus_4_fd
b0 rd_dx
b10000 rd_mw
b10010 rd_x
b10001 rd_xm
b0 reg_dest_dx
b1 reg_write_dx
b1 reg_write_mw
b1 reg_write_xm
b0 rf_data_1_dx
b0 rf_data_2_dx
b0 rf_data_2_xm
b1 rf_write_data_w
b0 rs_dx
b10010 rt_dx
b0 stall
b0 to_branch_x
b0 to_branch_xm
b1 clk

#125
b0 clk

#130
b10 ALU_first_x
b11 ALU_op_dx
b1 ALU_result_mw
b10 ALU_result_xm
b1 ALU_second_x
b0 ALU_src_dx
b10 ForwardA
b1 ForwardB
b0 branch_dx
b11111111111111100110000010101000 branch_offset_dx
b110100 branch_pc_xm
b10100000 control_out
b0 d_mem_read_mw
b11111111111111111001100000101010 imm_sign_dx
b1001100000101010 imm_zero_dx
b10100101001010000000100000 instr_f
b100000000101000001010100000111 instr_fd
b0 mem_to_reg_dx
b0 mem_to_reg_mw
b0 mem_to_reg_xm
b0 mem_write_dx
b0 mem_write_xm
b110000 pc
b110100 pc_next
b110000 pc_plus_4_dx
b110100 pc_plus_4_fd
b10011 rd_dx
b10001 rd_mw
b10011 rd_x
b10010 rd_xm
b1 reg_dest_dx
b1 reg_write_dx
b1 reg_write_mw
b1 reg_write_xm
b0 rf_data_1_dx
b0 rf_data_2_dx
b0 rf_data_2_xm
b1 rf_write_data_w
b10010 rs_dx
b10001 rt_dx
b0 stall
b0 to_branch_x
b0 to_branch_xm
b1 clk

#135
b0 clk

#140
b0 ALU_first_x
b0 ALU_op_dx
b10 ALU_result_mw
b0 ALU_result_xm
b1010100000111 ALU_second_x
b1 ALU_src_dx
b0 ForwardA
b0 ForwardB
b0 branch_dx
b101010000011100 branch_offset_dx
b11111111111111100110000011011000 branch_pc_xm
b1010000000 control_out
b0 d_mem_read_mw
b1010100000111 imm_sign_dx
b1010100000111 imm_zero_dx
b10100101001010000000100100 instr_f
b10100101001010000000100000 instr_fd
b0 mem_to_reg_dx
b0 mem_to_reg_mw
b0 mem_to_reg_xm
b0 mem_write_dx
b0 mem_write_xm
b110100 pc
b111000 pc_next
b110100 pc_plus_4_dx
b111000 pc_plus_4_fd
b10 rd_dx
b10010 rd_mw
b10100 rd_x
b10011 rd_xm
b0 reg_dest_dx
b1 reg_write_dx
b1 reg_write_mw
b1 reg_write_xm
b0 rf_data_1_dx
b0 rf_data_2_dx
b1 rf_data_2_xm
b10 rf_write_data_w
b0 rs_dx
b10100 rt_dx
b0 stall
b0 to_branch_x
b0 to_branch_xm
b1 clk

#145
b0 clk

#150
b1010100000111 ALU_first_x
b0 ALU_op_dx
b0 ALU_result_mw
b1010100000111 ALU_result_xm
b1010100000111 ALU_second_x
b0 ALU_src_dx
b10 ForwardA
b10 ForwardB
b0 branch_dx
b11111111111111101000000010000000 branch_offset_dx
b101010001010000 branch_pc_xm
b1010000001 control_out
b0 d_mem_read_mw
b11111111111111111010000000100000 imm_sign_dx
b1010000000100000 imm_zero_dx
b110110100101000000000000000001 instr_f
b10100101001010000000100100 instr_fd
b0 mem_to_reg_dx
b0 mem_to_reg_mw
b0 mem_to_reg_xm
b0 mem_write_dx
b0 mem_write_xm
b111000 pc
b111100 pc_next
b111000 pc_plus_4_dx
b111100 pc_plus_4_fd
b10100 rd_dx
b10011 rd_mw
b10100 rd_x
b10100 rd_xm
b1 reg_dest_dx
b1 reg_write_dx
b1 reg_write_mw
b1 reg_write_xm
b0 rf_data_1_dx
b0 rf_data_2_dx
b0 rf_data_2_xm
b0 rf_write_data_w
b10100 rs_dx
b10100 rt_dx
b0 stall
b0 to_branch_x
b0 to_branch_xm
b1 clk

#155
b0 clk

#160
b10101000001110 ALU_first_x
b1 ALU_op_dx
b1010100000111 ALU_result_mw
b10101000001110 ALU_result_xm
b10101000001110 ALU_second_x
b0 ALU_src_dx
b10 ForwardA
b10 ForwardB
b0 branch_dx
b11111111111111101000000010010000 branch_offset_dx
b11111111111111101000000010111000 branch_pc_xm
b11000010 control_out
b0 d_mem_read_mw
b11111111111111111010000000100100 imm_sign_dx
b1010000000100100 imm_zero_dx
b100000000101110000000000000000 instr_f
b110110100101000000000000000001 instr_fd
b0 mem_to_reg_dx
b0 mem_to_reg_mw
b0 mem_to_reg_xm
b0 mem_write_dx
b0 mem_write_xm
b111100 pc
b1000000 pc_next
b111100 pc_plus_4_dx
b1000000 pc_plus_4_fd
b10100 rd_dx
b10100 rd_mw
b10100 rd_x
b10100 rd_xm
b1 reg_dest_dx
b1 reg_write_dx
b1 reg_write_mw
b1 reg_write_xm
b0 rf_data_1_dx
b0 rf_data_2_dx
b1010100000111 rf_data_2_xm
b1010100000111 rf_write_data_w
b10100 rs_dx
b10100 rt_dx
b0 stall
b0 to_branch_x
b0 to_branch_xm
b1 clk

#165
b0 clk

#170
b10101000001110 ALU_first_x
b10 ALU_op_dx
b10101000001110 ALU_result_mw
b10101000001110 ALU_result_xm
b1 ALU_second_x
b10 ALU_src_dx
b10 ForwardA
b10 ForwardB
b0 branch_dx
b100 branch_offset_dx
b11111111111111101000000011001100 branch_pc_xm
b10100000 control_out
b0 d_mem_read_mw
b1 imm_sign_dx
b1 imm_zero_dx
b100000000101010000000000000001 instr_f
b100000000101110000000000000000 instr_fd
b0 mem_to_reg_dx
b0 mem_to_reg_mw
b0 mem_to_reg_xm
b0 mem_write_dx
b0 mem_write_xm
b1000000 pc
b1000100 pc_next
b1000000 pc_plus_4_dx
b1000100 pc_plus_4_fd
b0 rd_dx
b10100 rd_mw
b10100 rd_x
b10100 rd_xm
b0 reg_dest_dx
b1 reg_write_dx
b1 reg_write_mw
b1 reg_write_xm
b1010100000111 rf_data_1_dx
b1010100000111 rf_data_2_dx
b10101000001110 rf_data_2_xm
b10101000001110 rf_write_data_w
b10100 rs_dx
b10100 rt_dx
b0 stall
b0 to_branch_x
b0 to_branch_xm
b1 clk

#175
b0 clk

#180
b0 ALU_first_x
b0 ALU_op_dx
b10101000001110 ALU_result_mw
b10101000001111 ALU_result_xm
b0 ALU_second_x
b1 ALU_src_dx
b0 ForwardA
b0 ForwardB
b0 branch_dx
b0 branch_offset_dx
b1000100 branch_pc_xm
b10100000 control_out
b0 d_mem_read_mw
b0 imm_sign_dx
b0 imm_zero_dx
b100000000101100000000000000010 instr_f
b100000000101010000000000000001 instr_fd
b0 mem_to_reg_dx
b0 mem_to_reg_mw
b0 mem_to_reg_xm
b0 mem_write_dx
b0 mem_write_xm
b1000100 pc
b1001000 pc_next
b1000100 pc_plus_4_dx
b1001000 pc_plus_4_fd
b0 rd_dx
b10100 rd_mw
b10111 rd_x
b10100 rd_xm
b0 reg_dest_dx
b1 reg_write_dx
b1 reg_write_mw
b1 reg_write_xm
b0 rf_data_1_dx
b0 rf_data_2_dx
b10101000001110 rf_data_2_xm
b10101000001110 rf_write_data_w
b0 rs_dx
b10111 rt_dx
b0 stall
b0 to_branch_x
b0 to_branch_xm
b1 clk

#185
b0 clk

#190
b0 ALU_first_x
b0 ALU_op_dx
b10101000001111 ALU_result_mw
b0 ALU_result_xm
b1 ALU_second_x
b1 ALU_src_dx
b0 ForwardA
b0 ForwardB
b0 branch_dx
b100 branch_offset_dx
b1000100 branch_pc_xm
b10100000 control_out
b0 d_mem_read_mw
b1 imm_sign_dx
b1 imm_zero_dx
b10010101101100000000000000001 instr_f
b100000000101100000000000000010 instr_fd
b0 mem_to_reg_dx
b0 mem_to_reg_mw
b0 mem_to_reg_xm
b0 mem_write_dx
b0 mem_write_xm
b1001000 pc
b1001100 pc_next
b1001000 pc_plus_4_dx
b1001100 pc_plus_4_fd
b0 rd_dx
b10100 rd_mw
b10101 rd_x
b10111 rd_xm
b0 reg_dest_dx
b1 reg_write_dx
b1 reg_write_mw
b1 reg_write_xm
b0 rf_data_1_dx
b0 rf_data_2_dx
b0 rf_data_2_xm
b10101000001111 rf_write_data_w
b0 rs_dx
b10101 rt_dx
b0 stall
b0 to_branch_x
b0 to_branch_xm
b1 clk

#195
b0 clk

#200
b0 ALU_first_x
b0 ALU_op_dx
b0 ALU_result_mw
b1 ALU_result_xm
b10 ALU_second_x
b1 ALU_src_dx
b0 ForwardA
b0 ForwardB
b0 branch_dx
b1000 branch_offset_dx
b1001100 branch_pc_xm
b100000100 control_out
b0 d_mem_read_mw
b10 imm_sign_dx
b10 imm_zero_dx
b100000000101110000000000000101 instr_f
b10010101101100000000000000001 instr_fd
b0 mem_to_reg_dx
b0 mem_to_reg_mw
b0 mem_to_reg_xm
b0 mem_write_dx
b0 mem_write_xm
b1001100 pc
b1010000 pc_next
b1001100 pc_plus_4_dx
b1010000 pc_plus_4_fd
b0 rd_dx
b10111 rd_mw
b10110 rd_x
b10101 rd_xm
b0 reg_dest_dx
b1 reg_write_dx
b1 reg_write_mw
b1 reg_write_xm
b0 rf_data_1_dx
b0 rf_data_2_dx
b0 rf_data_2_xm
b0 rf_write_data_w
b0 rs_dx
b10110 rt_dx
b0 stall
b0 to_branch_x
b0 to_branch_xm
b1 clk

#205
b0 clk

#210
b1 ALU_first_x
b100 ALU_op_dx
b1 ALU_result_mw
b10 ALU_result_xm
b10 ALU_second_x
b0 ALU_src_dx
b1 ForwardA
b10 ForwardB
b1 branch_dx
b100 branch_offset_dx
b1010100 branch_pc_xm
b10100000 control_out
b0 d_mem_read_mw
b1 imm_sign_dx
b1 imm_zero_dx
b100000000000010000000000000000 instr_f
b100000000101110000000000000101 instr_fd
b0 mem_to_reg_dx
b0 mem_to_reg_mw
b0 mem_to_reg_xm
b0 mem_write_dx
b0 mem_write_xm
b1010000 pc
b1010100 pc_next
b1010000 pc_plus_4_dx
b1010100 pc_plus_4_fd
b0 rd_dx
b10101 rd_mw
b10110 rd_x
b10110 rd_xm
b0 reg_dest_dx
b0 reg_write_dx
b1 reg_write_mw
b1 reg_write_xm
b0 rf_data_1_dx
b0 rf_data_2_dx
b0 rf_data_2_xm
b1 rf_write_data_w
b10101 rs_dx
b10110 rt_dx
b0 stall
b0 to_branch_x
b0 to_branch_xm
b1 clk

#215
b0 clk

#220
b0 ALU_first_x
b0 ALU_op_dx
b10 ALU_result_mw
b11111111111111111111111111111111 ALU_result_xm
b101 ALU_second_x
b1 ALU_src_dx
b0 ForwardA
b0 ForwardB
b0 branch_dx
b10100 branch_offset_dx
b1010100 branch_pc_xm
b10100000 control_out
b0 d_mem_read_mw
b101 imm_sign_dx
b101 imm_zero_dx
b11000000100000 instr_f
b100000000000010000000000000000 instr_fd
b0 mem_to_reg_dx
b0 mem_to_reg_mw
b0 mem_to_reg_xm
b0 mem_write_dx
b0 mem_write_xm
b1010100 pc
b1011000 pc_next
b1010100 pc_plus_4_dx
b1011000 pc_plus_4_fd
b0 rd_dx
b10110 rd_mw
b10111 rd_x
b10110 rd_xm
b0 reg_dest_dx
b1 reg_write_dx
b1 reg_write_mw
b0 reg_write_xm
b0 rf_data_1_dx
b0 rf_data_2_dx
b10 rf_data_2_xm
b10 rf_write_data_w
b0 rs_dx
b10111 rt_dx
b0 stall
b0 to_branch_x
b0 to_branch_xm
b1 clk

#225
b0 clk

#230
b0 ALU_first_x
b0 ALU_op_dx
b11111111111111111111111111111111 ALU_result_mw
b101 ALU_result_xm
b0 ALU_second_x
b1 ALU_src_dx
b0 ForwardA
b0 ForwardB
b0 branch_dx
b0 branch_offset_dx
b1101000 branch_pc_xm
b1010000000 control_out
b0 d_mem_read_mw
b0 imm_sign_dx
b0 imm_zero_dx
b11100000100000 instr_f
b11000000100000 instr_fd
b0 mem_to_reg_dx
b0 mem_to_reg_mw
b0 mem_to_reg_xm
b0 mem_write_dx
b0 mem_write_xm
b1011000 pc
b1011100 pc_next
b1011000 pc_plus_4_dx
b1011100 pc_plus_4_fd
b0 rd_dx
b10110 rd_mw
b1 rd_x
b10111 rd_xm
b0 reg_dest_dx
b1 reg_write_dx
b0 reg_write_mw
b1 reg_write_xm
b0 rf_data_1_dx
b0 rf_data_2_dx
b0 rf_data_2_xm
b11111111111111111111111111111111 rf_write_data_w
b0 rs_dx
b1 rt_dx
b0 stall
b0 to_branch_x
b0 to_branch_xm
b1 clk

#235
b0 clk

